TYPE_OF_BILL_CD,ADMIT_STATUS_CD,AS_OF_DATE
012I,O,1/1/2018
0142,O,1/1/2018
0143,O,1/1/2018
0144,O,1/1/2018
0232,O,1/1/2018
0233,O,1/1/2018
0234,O,1/1/2018
0323,O,1/1/2018
0324,O,1/1/2018
0325,O,1/1/2018
0342,O,1/1/2018
0343,O,1/1/2018
0344,O,1/1/2018
043Q,O,1/1/2018
0712,O,1/1/2018
0713,O,1/1/2018
0714,O,1/1/2018
0752,O,1/1/2018
0753,O,1/1/2018
0754,O,1/1/2018
078F,O,1/1/2018
078G,O,1/1/2018
078H,O,1/1/2018
078I,O,1/1/2018
078J,O,1/1/2018
078K,O,1/1/2018
078M,O,1/1/2018
078O,O,1/1/2018
078P,O,1/1/2018
078Q,O,1/1/2018
078X,O,1/1/2018
078Y,O,1/1/2018
078Z,O,1/1/2018
0832,O,1/1/2018
0833,O,1/1/2018
0834,O,1/1/2018
084Q,O,1/1/2018
0892,O,1/1/2018
0893,O,1/1/2018
0894,O,1/1/2018
